
## Grants for reportingapi@% ##
GRANT USAGE ON *.* TO 'reportingapi'@'%' IDENTIFIED BY PASSWORD '00d3b3471b97c37b';
GRANT SELECT ON `openx`.`ox_users` TO 'reportingapi'@'%';
GRANT SELECT ON `openx`.`ox_session` TO 'reportingapi'@'%';
GRANT SELECT ON `openx`.`ox_clients` TO 'reportingapi'@'%';
GRANT SELECT ON `openx`.`ox_affiliates` TO 'reportingapi'@'%';

## Grants for spark@% ##
GRANT USAGE ON *.* TO 'spark'@'%' IDENTIFIED BY PASSWORD '09eb2fdf52635b54';
GRANT SELECT ON `openx`.* TO 'spark'@'%';
GRANT INSERT, UPDATE, DELETE ON `openx`.`ox_spark_conversions` TO 'spark'@'%';

## Grants for system@% ##
GRANT ALL PRIVILEGES ON *.* TO 'system'@'%' IDENTIFIED BY PASSWORD '34343040432850aa' WITH GRANT OPTION;

## Grants for replicant@10.100.0.133 ##
GRANT REPLICATION SLAVE ON *.* TO 'replicant'@'10.100.0.133' IDENTIFIED BY PASSWORD '57726e824daba5fd';

## Grants for replicant@10.100.0.136 ##
GRANT REPLICATION SLAVE ON *.* TO 'replicant'@'10.100.0.136' IDENTIFIED BY PASSWORD '588a667b1953a57e';

## Grants for replicant@10.100.0.137 ##
GRANT REPLICATION SLAVE ON *.* TO 'replicant'@'10.100.0.137' IDENTIFIED BY PASSWORD '23f066bf6ed1a652';

## Grants for replicant@10.100.0.138 ##
GRANT REPLICATION SLAVE ON *.* TO 'replicant'@'10.100.0.138' IDENTIFIED BY PASSWORD '3aa19f484c0ab4b8';

## Grants for replicant@10.100.0.139 ##
GRANT REPLICATION SLAVE ON *.* TO 'replicant'@'10.100.0.139' IDENTIFIED BY PASSWORD '088f423232b7c5cb';

## Grants for replicant@10.100.0.140 ##
GRANT REPLICATION SLAVE ON *.* TO 'replicant'@'10.100.0.140' IDENTIFIED BY PASSWORD '41e112d41ac93fc7';

## Grants for replicant@10.100.0.141 ##
GRANT REPLICATION SLAVE ON *.* TO 'replicant'@'10.100.0.141' IDENTIFIED BY PASSWORD '4a41e15d6477b7b5';

## Grants for replicant@10.100.0.142 ##
GRANT REPLICATION SLAVE ON *.* TO 'replicant'@'10.100.0.142' IDENTIFIED BY PASSWORD '01bdfa255fa2bc50';

## Grants for replicant@10.100.0.143 ##
GRANT REPLICATION SLAVE ON *.* TO 'replicant'@'10.100.0.143' IDENTIFIED BY PASSWORD '3b32d83c7df2e025';

## Grants for openex@10.24.44.42 ##
GRANT USAGE ON *.* TO 'openex'@'10.24.44.42' IDENTIFIED BY PASSWORD '6b4e7fe766ae5e32';
GRANT SELECT (campaignid), UPDATE (status) ON `openx`.`ox_campaigns` TO 'openex'@'10.24.44.42';
GRANT INSERT, DELETE ON `openx`.`ox_ext_data_facebook_flagged_ads` TO 'openex'@'10.24.44.42';
GRANT SELECT (user_id, recovery_id), INSERT, DELETE ON `openx`.`ox_password_recovery` TO 'openex'@'10.24.44.42';
GRANT SELECT (user_id), UPDATE (email_address, contact_name, language, password) ON `openx`.`ox_users` TO 'openex'@'10.24.44.42';
GRANT INSERT, DELETE ON `openx`.`ox_ext_publisher_payment_data_addon` TO 'openex'@'10.24.44.42';
GRANT INSERT, DELETE ON `openx`.`lb_local_webserver_status` TO 'openex'@'10.24.44.42';
GRANT INSERT, DELETE ON `openx`.`ox_ad_zone_block` TO 'openex'@'10.24.44.42';

## Grants for openxmpe@10.24.44.42 ##
GRANT USAGE ON *.* TO 'openxmpe'@'10.24.44.42' IDENTIFIED BY PASSWORD '6b4e7fe766ae5e32';
GRANT SELECT, INSERT, UPDATE, DELETE, CREATE, DROP, REFERENCES, INDEX, ALTER, CREATE TEMPORARY TABLES, LOCK TABLES, EXECUTE, CREATE VIEW, SHOW VIEW, CREATE ROUTINE, ALTER ROUTINE ON `openx`.* TO 'openxmpe'@'10.24.44.42';

## Grants for replicant@10.24.44.42 ##
GRANT REPLICATION SLAVE ON *.* TO 'replicant'@'10.24.44.42' IDENTIFIED BY PASSWORD '6b4e7fe766ae5e32';

## Grants for openex@10.26.61.5 ##
GRANT SUPER, EVENT, TRIGGER ON *.* TO 'openex'@'10.26.61.5' IDENTIFIED BY PASSWORD '6b4e7fe766ae5e32';
GRANT SELECT, INSERT, UPDATE, DELETE, CREATE, DROP, REFERENCES, INDEX, ALTER, CREATE TEMPORARY TABLES, LOCK TABLES, EXECUTE, CREATE VIEW, SHOW VIEW, CREATE ROUTINE, ALTER ROUTINE ON `openx`.* TO 'openex'@'10.26.61.5';

## Grants for replicant@10.26.61.5 ##
GRANT REPLICATION SLAVE ON *.* TO 'replicant'@'10.26.61.5' IDENTIFIED BY PASSWORD '16421ba75c31479d';

## Grants for openex@10.26.61.7 ##
GRANT SUPER, EVENT, TRIGGER ON *.* TO 'openex'@'10.26.61.7' IDENTIFIED BY PASSWORD '6b4e7fe766ae5e32';
GRANT SELECT, INSERT, UPDATE, DELETE, CREATE, DROP, REFERENCES, INDEX, ALTER, CREATE TEMPORARY TABLES, LOCK TABLES, EXECUTE, CREATE VIEW, SHOW VIEW, CREATE ROUTINE, ALTER ROUTINE ON `openx`.* TO 'openex'@'10.26.61.7';

## Grants for replicant@10.26.61.7 ##
GRANT REPLICATION SLAVE ON *.* TO 'replicant'@'10.26.61.7' IDENTIFIED BY PASSWORD '6b4e7fe766ae5e32';

## Grants for openex@10.26.62.71 ##
GRANT USAGE ON *.* TO 'openex'@'10.26.62.71' IDENTIFIED BY PASSWORD '6b4e7fe766ae5e32';
GRANT SELECT, INSERT, UPDATE, DELETE, CREATE, DROP, REFERENCES, INDEX, ALTER, CREATE TEMPORARY TABLES, LOCK TABLES, EXECUTE, CREATE VIEW, SHOW VIEW, CREATE ROUTINE, ALTER ROUTINE ON `openx`.* TO 'openex'@'10.26.62.71';
GRANT INSERT, DELETE ON `openx`.`ox_ad_zone_block` TO 'openex'@'10.26.62.71';
GRANT SELECT (campaignid), UPDATE (status) ON `openx`.`ox_campaigns` TO 'openex'@'10.26.62.71';
GRANT INSERT, DELETE ON `openx`.`ox_ext_publisher_payment_data_addon` TO 'openex'@'10.26.62.71';
GRANT INSERT, DELETE ON `openx`.`lb_local_webserver_status` TO 'openex'@'10.26.62.71';
GRANT INSERT, DELETE ON `openx`.`ox_ext_data_facebook_flagged_ads` TO 'openex'@'10.26.62.71';
GRANT SELECT (user_id), UPDATE (email_address, contact_name, language, password) ON `openx`.`ox_users` TO 'openex'@'10.26.62.71';
GRANT SELECT (user_id, recovery_id), INSERT, DELETE ON `openx`.`ox_password_recovery` TO 'openex'@'10.26.62.71';

## Grants for replicant@10.26.62.71 ##
GRANT REPLICATION SLAVE ON *.* TO 'replicant'@'10.26.62.71' IDENTIFIED BY PASSWORD '6b4e7fe766ae5e32';

## Grants for openex@10.32.133.120 ##
GRANT SUPER, EVENT, TRIGGER ON *.* TO 'openex'@'10.32.133.120' IDENTIFIED BY PASSWORD '6b4e7fe766ae5e32';
GRANT SELECT, INSERT, UPDATE, DELETE, CREATE, DROP, REFERENCES, INDEX, ALTER, CREATE TEMPORARY TABLES, LOCK TABLES, EXECUTE, CREATE VIEW, SHOW VIEW, CREATE ROUTINE, ALTER ROUTINE ON `openx`.* TO 'openex'@'10.32.133.120';

## Grants for replicant@10.32.133.120 ##
GRANT REPLICATION SLAVE ON *.* TO 'replicant'@'10.32.133.120' IDENTIFIED BY PASSWORD '6b4e7fe766ae5e32';

## Grants for openex@10.32.133.122 ##
GRANT SUPER, EVENT, TRIGGER ON *.* TO 'openex'@'10.32.133.122' IDENTIFIED BY PASSWORD '6b4e7fe766ae5e32';
GRANT SELECT, INSERT, UPDATE, DELETE, CREATE, DROP, REFERENCES, INDEX, ALTER, CREATE TEMPORARY TABLES, LOCK TABLES, EXECUTE, CREATE VIEW, SHOW VIEW, CREATE ROUTINE, ALTER ROUTINE ON `openx`.* TO 'openex'@'10.32.133.122';

## Grants for replicant@10.32.133.122 ##
GRANT REPLICATION SLAVE ON *.* TO 'replicant'@'10.32.133.122' IDENTIFIED BY PASSWORD '6b4e7fe766ae5e32';

## Grants for openex@10.32.133.124 ##
GRANT SUPER, EVENT, TRIGGER ON *.* TO 'openex'@'10.32.133.124' IDENTIFIED BY PASSWORD '6b4e7fe766ae5e32';
GRANT SELECT, INSERT, UPDATE, DELETE, CREATE, DROP, REFERENCES, INDEX, ALTER, CREATE TEMPORARY TABLES, LOCK TABLES, EXECUTE, CREATE VIEW, SHOW VIEW, CREATE ROUTINE, ALTER ROUTINE ON `openx`.* TO 'openex'@'10.32.133.124';

## Grants for replicant@10.32.133.124 ##
GRANT REPLICATION SLAVE ON *.* TO 'replicant'@'10.32.133.124' IDENTIFIED BY PASSWORD '6b4e7fe766ae5e32';

## Grants for openex@10.32.133.126 ##
GRANT SUPER, EVENT, TRIGGER ON *.* TO 'openex'@'10.32.133.126' IDENTIFIED BY PASSWORD '6b4e7fe766ae5e32';
GRANT SELECT, INSERT, UPDATE, DELETE, CREATE, DROP, REFERENCES, INDEX, ALTER, CREATE TEMPORARY TABLES, LOCK TABLES, EXECUTE, CREATE VIEW, SHOW VIEW, CREATE ROUTINE, ALTER ROUTINE ON `openx`.* TO 'openex'@'10.32.133.126';

## Grants for replicant@10.32.133.126 ##
GRANT REPLICATION SLAVE ON *.* TO 'replicant'@'10.32.133.126' IDENTIFIED BY PASSWORD '6b4e7fe766ae5e32';

## Grants for openex@10.32.133.128 ##
GRANT SUPER, EVENT, TRIGGER ON *.* TO 'openex'@'10.32.133.128' IDENTIFIED BY PASSWORD '6b4e7fe766ae5e32';
GRANT SELECT, INSERT, UPDATE, DELETE, CREATE, DROP, REFERENCES, INDEX, ALTER, CREATE TEMPORARY TABLES, LOCK TABLES, EXECUTE, CREATE VIEW, SHOW VIEW, CREATE ROUTINE, ALTER ROUTINE ON `openx`.* TO 'openex'@'10.32.133.128';

## Grants for replicant@10.32.133.128 ##
GRANT REPLICATION SLAVE ON *.* TO 'replicant'@'10.32.133.128' IDENTIFIED BY PASSWORD '6b4e7fe766ae5e32';

## Grants for openex@10.32.133.130 ##
GRANT SUPER, EVENT, TRIGGER ON *.* TO 'openex'@'10.32.133.130' IDENTIFIED BY PASSWORD '6b4e7fe766ae5e32';
GRANT SELECT, INSERT, UPDATE, DELETE, CREATE, DROP, REFERENCES, INDEX, ALTER, CREATE TEMPORARY TABLES, LOCK TABLES, EXECUTE, CREATE VIEW, SHOW VIEW, CREATE ROUTINE, ALTER ROUTINE ON `openx`.* TO 'openex'@'10.32.133.130';

## Grants for replicant@10.32.133.130 ##
GRANT REPLICATION SLAVE ON *.* TO 'replicant'@'10.32.133.130' IDENTIFIED BY PASSWORD '6b4e7fe766ae5e32';

## Grants for openex@10.32.133.132 ##
GRANT SUPER, EVENT, TRIGGER ON *.* TO 'openex'@'10.32.133.132' IDENTIFIED BY PASSWORD '6b4e7fe766ae5e32';
GRANT SELECT, INSERT, UPDATE, DELETE, CREATE, DROP, REFERENCES, INDEX, ALTER, CREATE TEMPORARY TABLES, LOCK TABLES, EXECUTE, CREATE VIEW, SHOW VIEW, CREATE ROUTINE, ALTER ROUTINE ON `openx`.* TO 'openex'@'10.32.133.132';

## Grants for replicant@10.32.133.132 ##
GRANT REPLICATION SLAVE ON *.* TO 'replicant'@'10.32.133.132' IDENTIFIED BY PASSWORD '6b4e7fe766ae5e32';

## Grants for openex@10.32.133.134 ##
GRANT SUPER, EVENT, TRIGGER ON *.* TO 'openex'@'10.32.133.134' IDENTIFIED BY PASSWORD '6b4e7fe766ae5e32';
GRANT SELECT, INSERT, UPDATE, DELETE, CREATE, DROP, REFERENCES, INDEX, ALTER, CREATE TEMPORARY TABLES, LOCK TABLES, EXECUTE, CREATE VIEW, SHOW VIEW, CREATE ROUTINE, ALTER ROUTINE ON `openx`.* TO 'openex'@'10.32.133.134';

## Grants for replicant@10.32.133.134 ##
GRANT REPLICATION SLAVE ON *.* TO 'replicant'@'10.32.133.134' IDENTIFIED BY PASSWORD '6b4e7fe766ae5e32';

## Grants for openex@10.32.133.136 ##
GRANT SUPER, EVENT, TRIGGER ON *.* TO 'openex'@'10.32.133.136' IDENTIFIED BY PASSWORD '6b4e7fe766ae5e32';
GRANT SELECT, INSERT, UPDATE, DELETE, CREATE, DROP, REFERENCES, INDEX, ALTER, CREATE TEMPORARY TABLES, LOCK TABLES, EXECUTE, CREATE VIEW, SHOW VIEW, CREATE ROUTINE, ALTER ROUTINE ON `openx`.* TO 'openex'@'10.32.133.136';

## Grants for replicant@10.32.133.136 ##
GRANT REPLICATION SLAVE ON *.* TO 'replicant'@'10.32.133.136' IDENTIFIED BY PASSWORD '6b4e7fe766ae5e32';

## Grants for openex@10.32.133.138 ##
GRANT SUPER, EVENT, TRIGGER ON *.* TO 'openex'@'10.32.133.138' IDENTIFIED BY PASSWORD '6b4e7fe766ae5e32';
GRANT SELECT, INSERT, UPDATE, DELETE, CREATE, DROP, REFERENCES, INDEX, ALTER, CREATE TEMPORARY TABLES, LOCK TABLES, EXECUTE, CREATE VIEW, SHOW VIEW, CREATE ROUTINE, ALTER ROUTINE ON `openx`.* TO 'openex'@'10.32.133.138';

## Grants for replicant@10.32.133.138 ##
GRANT REPLICATION SLAVE ON *.* TO 'replicant'@'10.32.133.138' IDENTIFIED BY PASSWORD '6b4e7fe766ae5e32';

## Grants for openex@10.32.133.176 ##
GRANT SUPER, EVENT, TRIGGER ON *.* TO 'openex'@'10.32.133.176' IDENTIFIED BY PASSWORD '6b4e7fe766ae5e32';
GRANT SELECT, INSERT, UPDATE, DELETE, CREATE, DROP, REFERENCES, INDEX, ALTER, CREATE TEMPORARY TABLES, LOCK TABLES, EXECUTE, CREATE VIEW, SHOW VIEW, CREATE ROUTINE, ALTER ROUTINE ON `openx`.* TO 'openex'@'10.32.133.176';

## Grants for replicant@10.32.133.176 ##
GRANT REPLICATION SLAVE ON *.* TO 'replicant'@'10.32.133.176' IDENTIFIED BY PASSWORD '6b4e7fe766ae5e32';

## Grants for openex@10.32.133.186 ##
GRANT SUPER, EVENT, TRIGGER ON *.* TO 'openex'@'10.32.133.186' IDENTIFIED BY PASSWORD '6b4e7fe766ae5e32';
GRANT SELECT, INSERT, UPDATE, DELETE, CREATE, DROP, REFERENCES, INDEX, ALTER, CREATE TEMPORARY TABLES, LOCK TABLES, EXECUTE, CREATE VIEW, SHOW VIEW, CREATE ROUTINE, ALTER ROUTINE ON `openx`.* TO 'openex'@'10.32.133.186';

## Grants for replicant@10.32.133.186 ##
GRANT REPLICATION SLAVE ON *.* TO 'replicant'@'10.32.133.186' IDENTIFIED BY PASSWORD '5b1ceb2727d52198';

## Grants for openex@10.32.2.174 ##
GRANT USAGE ON *.* TO 'openex'@'10.32.2.174' IDENTIFIED BY PASSWORD '6b4e7fe766ae5e32';
GRANT SELECT, INSERT, UPDATE, DELETE, CREATE, DROP, REFERENCES, INDEX, ALTER, CREATE TEMPORARY TABLES, LOCK TABLES, EXECUTE, CREATE VIEW, SHOW VIEW, CREATE ROUTINE, ALTER ROUTINE ON `openx`.* TO 'openex'@'10.32.2.174';

## Grants for replicant@10.32.2.174 ##
GRANT REPLICATION SLAVE ON *.* TO 'replicant'@'10.32.2.174' IDENTIFIED BY PASSWORD '6b4e7fe766ae5e32';

## Grants for openex@10.32.35.140 ##
GRANT SUPER, EVENT, TRIGGER ON *.* TO 'openex'@'10.32.35.140' IDENTIFIED BY PASSWORD '6b4e7fe766ae5e32';
GRANT SELECT, INSERT, UPDATE, DELETE, CREATE, DROP, REFERENCES, INDEX, ALTER, CREATE TEMPORARY TABLES, LOCK TABLES, EXECUTE, CREATE VIEW, SHOW VIEW, CREATE ROUTINE, ALTER ROUTINE ON `openx`.* TO 'openex'@'10.32.35.140';

## Grants for replicant@10.32.35.140 ##
GRANT REPLICATION SLAVE ON *.* TO 'replicant'@'10.32.35.140' IDENTIFIED BY PASSWORD '6b4e7fe766ae5e32';

## Grants for replicant@10.56.7.102 ##
GRANT REPLICATION SLAVE ON *.* TO 'replicant'@'10.56.7.102' IDENTIFIED BY PASSWORD '5b1ceb2727d52198';

## Grants for replicant@10.57.60.% ##
GRANT ALL PRIVILEGES ON *.* TO 'replicant'@'10.57.60.%' IDENTIFIED BY PASSWORD '5b1ceb2727d52198';

## Grants for openex@10.57.60.100 ##
GRANT SUPER, EVENT, TRIGGER ON *.* TO 'openex'@'10.57.60.100' IDENTIFIED BY PASSWORD '6b4e7fe766ae5e32';
GRANT SELECT ON `openx`.* TO 'openex'@'10.57.60.100';
GRANT SELECT, INSERT, UPDATE, DELETE ON `openx`.`ox_data_bkt_a_var` TO 'openex'@'10.57.60.100';
GRANT SELECT, INSERT, UPDATE, DELETE ON `openx`.`ox_ext_reward_video` TO 'openex'@'10.57.60.100';
GRANT SELECT, INSERT, UPDATE, DELETE ON `openx`.`ox_data_bkt_tracker_info` TO 'openex'@'10.57.60.100';
GRANT SELECT, INSERT, UPDATE, DELETE ON `openx`.`ox_data_bkt_a` TO 'openex'@'10.57.60.100';
GRANT SELECT, INSERT, UPDATE, DELETE ON `openx`.`lb_local_webserver_status` TO 'openex'@'10.57.60.100';
GRANT SELECT, INSERT, UPDATE, DELETE ON `openx`.`ox_ext_wecos_data_raw_ip_ci_log` TO 'openex'@'10.57.60.100';
GRANT SELECT, INSERT, UPDATE, DELETE ON `openx`.`ox_ext_wecos_data_raw_ip_ci_log_server` TO 'openex'@'10.57.60.100';
GRANT SELECT, INSERT, UPDATE, DELETE ON `openx`.`ox_data_bkt_c` TO 'openex'@'10.57.60.100';
GRANT SELECT, INSERT, UPDATE, DELETE ON `openx`.`ox_data_bkt_country_c` TO 'openex'@'10.57.60.100';
GRANT SELECT, INSERT, UPDATE, DELETE ON `openx`.`ox_data_bkt_country_m` TO 'openex'@'10.57.60.100';
GRANT SELECT, INSERT, UPDATE, DELETE ON `openx`.`ox_data_bkt_m` TO 'openex'@'10.57.60.100';
GRANT SELECT, INSERT, UPDATE, DELETE ON `openx`.`ox_data_bkt_r` TO 'openex'@'10.57.60.100';
GRANT SELECT, INSERT, UPDATE, DELETE ON `openx`.`ox_data_bkt_vast_e` TO 'openex'@'10.57.60.100';
GRANT SELECT, INSERT, UPDATE, DELETE ON `openx`.`ox_ext_wecos_data_raw_ip_ci_log_fingerprint` TO 'openex'@'10.57.60.100';
GRANT SELECT, INSERT, UPDATE, DELETE ON `openx`.`ox_ext_wecos_data_raw_ip_ti_log` TO 'openex'@'10.57.60.100';

## Grants for openex@10.57.60.102 ##
GRANT SUPER, EVENT, TRIGGER ON *.* TO 'openex'@'10.57.60.102' IDENTIFIED BY PASSWORD '6b4e7fe766ae5e32';
GRANT SELECT ON `openx`.* TO 'openex'@'10.57.60.102';
GRANT SELECT, INSERT, UPDATE, DELETE ON `openx`.`ox_ext_reward_video` TO 'openex'@'10.57.60.102';
GRANT SELECT, INSERT, UPDATE, DELETE ON `openx`.`ox_data_bkt_a` TO 'openex'@'10.57.60.102';
GRANT SELECT, INSERT, UPDATE, DELETE ON `openx`.`ox_data_bkt_c` TO 'openex'@'10.57.60.102';
GRANT SELECT, INSERT, UPDATE, DELETE ON `openx`.`ox_ext_wecos_data_raw_ip_ci_log_fingerprint` TO 'openex'@'10.57.60.102';
GRANT SELECT, INSERT, UPDATE, DELETE ON `openx`.`ox_ext_wecos_data_raw_ip_ti_log` TO 'openex'@'10.57.60.102';
GRANT SELECT, INSERT, UPDATE, DELETE ON `openx`.`ox_data_bkt_a_var` TO 'openex'@'10.57.60.102';
GRANT SELECT, INSERT, UPDATE, DELETE ON `openx`.`lb_local_webserver_status` TO 'openex'@'10.57.60.102';
GRANT SELECT, INSERT, UPDATE, DELETE ON `openx`.`ox_ext_wecos_data_raw_ip_ci_log` TO 'openex'@'10.57.60.102';
GRANT SELECT, INSERT, UPDATE, DELETE ON `openx`.`ox_ext_wecos_data_raw_ip_ci_log_server` TO 'openex'@'10.57.60.102';
GRANT SELECT, INSERT, UPDATE, DELETE ON `openx`.`ox_data_bkt_country_c` TO 'openex'@'10.57.60.102';
GRANT SELECT, INSERT, UPDATE, DELETE ON `openx`.`ox_data_bkt_country_m` TO 'openex'@'10.57.60.102';
GRANT SELECT, INSERT, UPDATE, DELETE ON `openx`.`ox_data_bkt_m` TO 'openex'@'10.57.60.102';
GRANT SELECT, INSERT, UPDATE, DELETE ON `openx`.`ox_data_bkt_r` TO 'openex'@'10.57.60.102';
GRANT SELECT, INSERT, UPDATE, DELETE ON `openx`.`ox_data_bkt_vast_e` TO 'openex'@'10.57.60.102';
GRANT SELECT, INSERT, UPDATE, DELETE ON `openx`.`ox_data_bkt_tracker_info` TO 'openex'@'10.57.60.102';

## Grants for openex@10.57.60.104 ##
GRANT SUPER, EVENT, TRIGGER ON *.* TO 'openex'@'10.57.60.104' IDENTIFIED BY PASSWORD '6b4e7fe766ae5e32';
GRANT SELECT ON `openx`.* TO 'openex'@'10.57.60.104';
GRANT SELECT, INSERT, UPDATE, DELETE ON `openx`.`ox_data_bkt_c` TO 'openex'@'10.57.60.104';
GRANT SELECT, INSERT, UPDATE, DELETE ON `openx`.`lb_local_webserver_status` TO 'openex'@'10.57.60.104';
GRANT SELECT, INSERT, UPDATE, DELETE ON `openx`.`ox_data_bkt_country_c` TO 'openex'@'10.57.60.104';
GRANT SELECT, INSERT, UPDATE, DELETE ON `openx`.`ox_data_bkt_a_var` TO 'openex'@'10.57.60.104';
GRANT SELECT, INSERT, UPDATE, DELETE ON `openx`.`ox_ext_reward_video` TO 'openex'@'10.57.60.104';
GRANT SELECT, INSERT, UPDATE, DELETE ON `openx`.`ox_ext_wecos_data_raw_ip_ci_log` TO 'openex'@'10.57.60.104';
GRANT SELECT, INSERT, UPDATE, DELETE ON `openx`.`ox_ext_wecos_data_raw_ip_ci_log_server` TO 'openex'@'10.57.60.104';
GRANT SELECT, INSERT, UPDATE, DELETE ON `openx`.`ox_data_bkt_a` TO 'openex'@'10.57.60.104';
GRANT SELECT, INSERT, UPDATE, DELETE ON `openx`.`ox_data_bkt_tracker_info` TO 'openex'@'10.57.60.104';
GRANT SELECT, INSERT, UPDATE, DELETE ON `openx`.`ox_data_bkt_country_m` TO 'openex'@'10.57.60.104';
GRANT SELECT, INSERT, UPDATE, DELETE ON `openx`.`ox_data_bkt_m` TO 'openex'@'10.57.60.104';
GRANT SELECT, INSERT, UPDATE, DELETE ON `openx`.`ox_data_bkt_vast_e` TO 'openex'@'10.57.60.104';
GRANT SELECT, INSERT, UPDATE, DELETE ON `openx`.`ox_ext_wecos_data_raw_ip_ci_log_fingerprint` TO 'openex'@'10.57.60.104';
GRANT SELECT, INSERT, UPDATE, DELETE ON `openx`.`ox_ext_wecos_data_raw_ip_ti_log` TO 'openex'@'10.57.60.104';
GRANT SELECT, INSERT, UPDATE, DELETE ON `openx`.`ox_data_bkt_r` TO 'openex'@'10.57.60.104';

## Grants for openex@10.57.60.106 ##
GRANT SUPER, EVENT, TRIGGER ON *.* TO 'openex'@'10.57.60.106' IDENTIFIED BY PASSWORD '6b4e7fe766ae5e32';
GRANT SELECT ON `openx`.* TO 'openex'@'10.57.60.106';
GRANT SELECT, INSERT, UPDATE, DELETE ON `openx`.`lb_local_webserver_status` TO 'openex'@'10.57.60.106';
GRANT SELECT, INSERT, UPDATE, DELETE ON `openx`.`ox_data_bkt_a_var` TO 'openex'@'10.57.60.106';
GRANT SELECT, INSERT, UPDATE, DELETE ON `openx`.`ox_ext_reward_video` TO 'openex'@'10.57.60.106';
GRANT SELECT, INSERT, UPDATE, DELETE ON `openx`.`ox_ext_wecos_data_raw_ip_ci_log` TO 'openex'@'10.57.60.106';
GRANT SELECT, INSERT, UPDATE, DELETE ON `openx`.`ox_ext_wecos_data_raw_ip_ci_log_server` TO 'openex'@'10.57.60.106';
GRANT SELECT, INSERT, UPDATE, DELETE ON `openx`.`ox_data_bkt_a` TO 'openex'@'10.57.60.106';
GRANT SELECT, INSERT, UPDATE, DELETE ON `openx`.`ox_data_bkt_tracker_info` TO 'openex'@'10.57.60.106';
GRANT SELECT, INSERT, UPDATE, DELETE ON `openx`.`ox_data_bkt_c` TO 'openex'@'10.57.60.106';
GRANT SELECT, INSERT, UPDATE, DELETE ON `openx`.`ox_data_bkt_country_c` TO 'openex'@'10.57.60.106';
GRANT SELECT, INSERT, UPDATE, DELETE ON `openx`.`ox_data_bkt_country_m` TO 'openex'@'10.57.60.106';
GRANT SELECT, INSERT, UPDATE, DELETE ON `openx`.`ox_data_bkt_m` TO 'openex'@'10.57.60.106';
GRANT SELECT, INSERT, UPDATE, DELETE ON `openx`.`ox_data_bkt_r` TO 'openex'@'10.57.60.106';
GRANT SELECT, INSERT, UPDATE, DELETE ON `openx`.`ox_data_bkt_vast_e` TO 'openex'@'10.57.60.106';
GRANT SELECT, INSERT, UPDATE, DELETE ON `openx`.`ox_ext_wecos_data_raw_ip_ci_log_fingerprint` TO 'openex'@'10.57.60.106';
GRANT SELECT, INSERT, UPDATE, DELETE ON `openx`.`ox_ext_wecos_data_raw_ip_ti_log` TO 'openex'@'10.57.60.106';

## Grants for openex@10.57.60.66 ##
GRANT USAGE ON *.* TO 'openex'@'10.57.60.66' IDENTIFIED BY PASSWORD '6b4e7fe766ae5e32';
GRANT SELECT, INSERT, UPDATE, DELETE, CREATE, DROP, REFERENCES, INDEX, ALTER, CREATE TEMPORARY TABLES, LOCK TABLES, EXECUTE, CREATE VIEW, SHOW VIEW, CREATE ROUTINE, ALTER ROUTINE ON `openx`.* TO 'openex'@'10.57.60.66';
GRANT SELECT (recovery_id, user_id), INSERT, DELETE ON `openx`.`ox_password_recovery` TO 'openex'@'10.57.60.66';
GRANT INSERT, DELETE ON `openx`.`ox_ext_publisher_payment_data_addon` TO 'openex'@'10.57.60.66';
GRANT INSERT, DELETE ON `openx`.`lb_local_webserver_status` TO 'openex'@'10.57.60.66';
GRANT INSERT, DELETE ON `openx`.`ox_ad_zone_block` TO 'openex'@'10.57.60.66';
GRANT SELECT (campaignid), UPDATE (status) ON `openx`.`ox_campaigns` TO 'openex'@'10.57.60.66';
GRANT INSERT, DELETE ON `openx`.`ox_ext_data_facebook_flagged_ads` TO 'openex'@'10.57.60.66';
GRANT SELECT, INSERT, UPDATE, DELETE ON `openx`.`ox_ext_offers_push` TO 'openex'@'10.57.60.66';
GRANT SELECT, INSERT, UPDATE, DELETE ON `openx`.`ox_ext_offers_push_message` TO 'openex'@'10.57.60.66';
GRANT SELECT (user_id), UPDATE (email_address, password, contact_name, language) ON `openx`.`ox_users` TO 'openex'@'10.57.60.66';

## Grants for openx@10.57.60.66 ##
GRANT FILE ON *.* TO 'openx'@'10.57.60.66' IDENTIFIED BY PASSWORD '6b4e7fe766ae5e32';
GRANT SELECT ON `openx`.* TO 'openx'@'10.57.60.66';

## Grants for replicant@10.57.60.66 ##
GRANT SELECT, INSERT, UPDATE, DELETE, CREATE, DROP, RELOAD, SHUTDOWN, PROCESS, FILE, REFERENCES, INDEX, ALTER, SHOW DATABASES, SUPER, CREATE TEMPORARY TABLES, LOCK TABLES, EXECUTE, REPLICATION SLAVE, REPLICATION CLIENT, CREATE VIEW, SHOW VIEW, CREATE ROUTINE, ALTER ROUTINE, CREATE USER ON *.* TO 'replicant'@'10.57.60.66' IDENTIFIED BY PASSWORD '6b4e7fe766ae5e32';

## Grants for openex@10.57.60.72 ##
GRANT USAGE ON *.* TO 'openex'@'10.57.60.72' IDENTIFIED BY PASSWORD '6b4e7fe766ae5e32';
GRANT SELECT, INSERT, UPDATE, DELETE, CREATE, DROP, REFERENCES, INDEX, ALTER, CREATE TEMPORARY TABLES, LOCK TABLES, EXECUTE, CREATE VIEW, SHOW VIEW, CREATE ROUTINE, ALTER ROUTINE ON `openx`.* TO 'openex'@'10.57.60.72';
GRANT INSERT, DELETE ON `openx`.`ox_ad_zone_block` TO 'openex'@'10.57.60.72';
GRANT SELECT (campaignid), UPDATE (status) ON `openx`.`ox_campaigns` TO 'openex'@'10.57.60.72';
GRANT INSERT, DELETE ON `openx`.`ox_ext_data_facebook_flagged_ads` TO 'openex'@'10.57.60.72';
GRANT INSERT, DELETE ON `openx`.`ox_ext_publisher_payment_data_addon` TO 'openex'@'10.57.60.72';
GRANT SELECT (user_id, recovery_id), INSERT, DELETE ON `openx`.`ox_password_recovery` TO 'openex'@'10.57.60.72';
GRANT SELECT (user_id), UPDATE (email_address, contact_name, language, password) ON `openx`.`ox_users` TO 'openex'@'10.57.60.72';
GRANT INSERT, DELETE ON `openx`.`lb_local_webserver_status` TO 'openex'@'10.57.60.72';
GRANT SELECT, INSERT, UPDATE, DELETE ON `openx`.`ox_ext_offers_push` TO 'openex'@'10.57.60.72';
GRANT SELECT, INSERT, UPDATE, DELETE ON `openx`.`ox_ext_offers_push_message` TO 'openex'@'10.57.60.72';

## Grants for openx@10.57.60.72 ##
GRANT FILE ON *.* TO 'openx'@'10.57.60.72' IDENTIFIED BY PASSWORD '6b4e7fe766ae5e32';
GRANT SELECT ON `openx`.* TO 'openx'@'10.57.60.72';

## Grants for replicant@10.57.60.72 ##
GRANT ALL PRIVILEGES ON *.* TO 'replicant'@'10.57.60.72' IDENTIFIED BY PASSWORD '6b4e7fe766ae5e32';

## Grants for openex@10.57.60.78 ##
GRANT USAGE ON *.* TO 'openex'@'10.57.60.78' IDENTIFIED BY PASSWORD '6b4e7fe766ae5e32';
GRANT INSERT, DELETE ON `openx`.`lb_local_webserver_status` TO 'openex'@'10.57.60.78';
GRANT INSERT, DELETE ON `openx`.`ox_ad_zone_block` TO 'openex'@'10.57.60.78';
GRANT SELECT (user_id), UPDATE (email_address, contact_name, language, password) ON `openx`.`ox_users` TO 'openex'@'10.57.60.78';
GRANT INSERT, DELETE ON `openx`.`ox_ext_publisher_payment_data_addon` TO 'openex'@'10.57.60.78';
GRANT SELECT (campaignid), UPDATE (status) ON `openx`.`ox_campaigns` TO 'openex'@'10.57.60.78';
GRANT SELECT (user_id, recovery_id), INSERT, DELETE ON `openx`.`ox_password_recovery` TO 'openex'@'10.57.60.78';
GRANT INSERT, DELETE ON `openx`.`ox_ext_data_facebook_flagged_ads` TO 'openex'@'10.57.60.78';

## Grants for openxmpe@10.57.60.78 ##
GRANT USAGE ON *.* TO 'openxmpe'@'10.57.60.78' IDENTIFIED BY PASSWORD '6b4e7fe766ae5e32';
GRANT SELECT, INSERT, UPDATE, DELETE, CREATE, DROP, REFERENCES, INDEX, ALTER, CREATE TEMPORARY TABLES, LOCK TABLES, EXECUTE, CREATE VIEW, SHOW VIEW, CREATE ROUTINE, ALTER ROUTINE ON `openx`.* TO 'openxmpe'@'10.57.60.78';

## Grants for openex@10.57.60.80 ##
GRANT SUPER, EVENT, TRIGGER ON *.* TO 'openex'@'10.57.60.80' IDENTIFIED BY PASSWORD '6b4e7fe766ae5e32';
GRANT SELECT ON `openx`.* TO 'openex'@'10.57.60.80';
GRANT SELECT, INSERT, UPDATE, DELETE ON `openx`.`ox_data_bkt_a_var` TO 'openex'@'10.57.60.80';
GRANT SELECT, INSERT, UPDATE, DELETE ON `openx`.`ox_ext_reward_video` TO 'openex'@'10.57.60.80';
GRANT SELECT, INSERT, UPDATE, DELETE ON `openx`.`lb_local_webserver_status` TO 'openex'@'10.57.60.80';
GRANT SELECT, INSERT, UPDATE, DELETE ON `openx`.`ox_ext_wecos_data_raw_ip_ci_log` TO 'openex'@'10.57.60.80';
GRANT SELECT, INSERT, UPDATE, DELETE ON `openx`.`ox_data_bkt_a` TO 'openex'@'10.57.60.80';
GRANT SELECT, INSERT, UPDATE, DELETE ON `openx`.`ox_data_bkt_tracker_info` TO 'openex'@'10.57.60.80';
GRANT SELECT, INSERT, UPDATE, DELETE ON `openx`.`ox_data_bkt_c` TO 'openex'@'10.57.60.80';
GRANT SELECT, INSERT, UPDATE, DELETE ON `openx`.`ox_data_bkt_country_c` TO 'openex'@'10.57.60.80';
GRANT SELECT, INSERT, UPDATE, DELETE ON `openx`.`ox_data_bkt_country_m` TO 'openex'@'10.57.60.80';
GRANT SELECT, INSERT, UPDATE, DELETE ON `openx`.`ox_data_bkt_m` TO 'openex'@'10.57.60.80';
GRANT SELECT, INSERT, UPDATE, DELETE ON `openx`.`ox_data_bkt_r` TO 'openex'@'10.57.60.80';
GRANT SELECT, INSERT, UPDATE, DELETE ON `openx`.`ox_data_bkt_vast_e` TO 'openex'@'10.57.60.80';
GRANT SELECT, INSERT, UPDATE, DELETE ON `openx`.`ox_ext_wecos_data_raw_ip_ci_log_fingerprint` TO 'openex'@'10.57.60.80';
GRANT SELECT, INSERT, UPDATE, DELETE ON `openx`.`ox_ext_wecos_data_raw_ip_ti_log` TO 'openex'@'10.57.60.80';
GRANT SELECT, INSERT, UPDATE, DELETE ON `openx`.`ox_ext_wecos_data_raw_ip_ci_log_server` TO 'openex'@'10.57.60.80';

## Grants for openex@10.57.60.82 ##
GRANT SUPER, EVENT, TRIGGER ON *.* TO 'openex'@'10.57.60.82' IDENTIFIED BY PASSWORD '6b4e7fe766ae5e32';
GRANT SELECT ON `openx`.* TO 'openex'@'10.57.60.82';
GRANT SELECT, INSERT, UPDATE, DELETE ON `openx`.`ox_ext_wecos_data_raw_ip_ci_log_fingerprint` TO 'openex'@'10.57.60.82';
GRANT SELECT, INSERT, UPDATE, DELETE ON `openx`.`ox_ext_wecos_data_raw_ip_ti_log` TO 'openex'@'10.57.60.82';
GRANT SELECT, INSERT, UPDATE, DELETE ON `openx`.`ox_ext_wecos_data_raw_ip_ci_log` TO 'openex'@'10.57.60.82';
GRANT SELECT, INSERT, UPDATE, DELETE ON `openx`.`ox_data_bkt_r` TO 'openex'@'10.57.60.82';
GRANT SELECT, INSERT, UPDATE, DELETE ON `openx`.`ox_data_bkt_a_var` TO 'openex'@'10.57.60.82';
GRANT SELECT, INSERT, UPDATE, DELETE ON `openx`.`lb_local_webserver_status` TO 'openex'@'10.57.60.82';
GRANT SELECT, INSERT, UPDATE, DELETE ON `openx`.`ox_data_bkt_a` TO 'openex'@'10.57.60.82';
GRANT SELECT, INSERT, UPDATE, DELETE ON `openx`.`ox_data_bkt_m` TO 'openex'@'10.57.60.82';
GRANT SELECT, INSERT, UPDATE, DELETE ON `openx`.`ox_data_bkt_c` TO 'openex'@'10.57.60.82';
GRANT SELECT, INSERT, UPDATE, DELETE ON `openx`.`ox_data_bkt_country_c` TO 'openex'@'10.57.60.82';
GRANT SELECT, INSERT, UPDATE, DELETE ON `openx`.`ox_data_bkt_country_m` TO 'openex'@'10.57.60.82';
GRANT SELECT, INSERT, UPDATE, DELETE ON `openx`.`ox_data_bkt_tracker_info` TO 'openex'@'10.57.60.82';
GRANT SELECT, INSERT, UPDATE, DELETE ON `openx`.`ox_data_bkt_vast_e` TO 'openex'@'10.57.60.82';
GRANT SELECT, INSERT, UPDATE, DELETE ON `openx`.`ox_ext_wecos_data_raw_ip_ci_log_server` TO 'openex'@'10.57.60.82';
GRANT SELECT, INSERT, UPDATE, DELETE ON `openx`.`ox_ext_reward_video` TO 'openex'@'10.57.60.82';

## Grants for openex@10.57.60.84 ##
GRANT SUPER, EVENT, TRIGGER ON *.* TO 'openex'@'10.57.60.84' IDENTIFIED BY PASSWORD '6b4e7fe766ae5e32';
GRANT SELECT ON `openx`.* TO 'openex'@'10.57.60.84';
GRANT SELECT, INSERT, UPDATE, DELETE ON `openx`.`ox_ext_reward_video` TO 'openex'@'10.57.60.84';
GRANT SELECT, INSERT, UPDATE, DELETE ON `openx`.`ox_ext_wecos_data_raw_ip_ci_log` TO 'openex'@'10.57.60.84';
GRANT SELECT, INSERT, UPDATE, DELETE ON `openx`.`lb_local_webserver_status` TO 'openex'@'10.57.60.84';
GRANT SELECT, INSERT, UPDATE, DELETE ON `openx`.`ox_data_bkt_a` TO 'openex'@'10.57.60.84';
GRANT SELECT, INSERT, UPDATE, DELETE ON `openx`.`ox_data_bkt_a_var` TO 'openex'@'10.57.60.84';
GRANT SELECT, INSERT, UPDATE, DELETE ON `openx`.`ox_data_bkt_c` TO 'openex'@'10.57.60.84';
GRANT SELECT, INSERT, UPDATE, DELETE ON `openx`.`ox_data_bkt_country_c` TO 'openex'@'10.57.60.84';
GRANT SELECT, INSERT, UPDATE, DELETE ON `openx`.`ox_data_bkt_country_m` TO 'openex'@'10.57.60.84';
GRANT SELECT, INSERT, UPDATE, DELETE ON `openx`.`ox_data_bkt_m` TO 'openex'@'10.57.60.84';
GRANT SELECT, INSERT, UPDATE, DELETE ON `openx`.`ox_data_bkt_r` TO 'openex'@'10.57.60.84';
GRANT SELECT, INSERT, UPDATE, DELETE ON `openx`.`ox_data_bkt_tracker_info` TO 'openex'@'10.57.60.84';
GRANT SELECT, INSERT, UPDATE, DELETE ON `openx`.`ox_data_bkt_vast_e` TO 'openex'@'10.57.60.84';
GRANT SELECT, INSERT, UPDATE, DELETE ON `openx`.`ox_ext_wecos_data_raw_ip_ci_log_fingerprint` TO 'openex'@'10.57.60.84';
GRANT SELECT, INSERT, UPDATE, DELETE ON `openx`.`ox_ext_wecos_data_raw_ip_ti_log` TO 'openex'@'10.57.60.84';
GRANT SELECT, INSERT, UPDATE, DELETE ON `openx`.`ox_ext_wecos_data_raw_ip_ci_log_server` TO 'openex'@'10.57.60.84';

## Grants for openex@10.57.60.86 ##
GRANT SUPER, EVENT, TRIGGER ON *.* TO 'openex'@'10.57.60.86' IDENTIFIED BY PASSWORD '6b4e7fe766ae5e32';
GRANT SELECT ON `openx`.* TO 'openex'@'10.57.60.86';
GRANT SELECT, INSERT, UPDATE, DELETE ON `openx`.`ox_ext_reward_video` TO 'openex'@'10.57.60.86';
GRANT SELECT, INSERT, UPDATE, DELETE ON `openx`.`ox_ext_wecos_data_raw_ip_ci_log` TO 'openex'@'10.57.60.86';
GRANT SELECT, INSERT, UPDATE, DELETE ON `openx`.`lb_local_webserver_status` TO 'openex'@'10.57.60.86';
GRANT SELECT, INSERT, UPDATE, DELETE ON `openx`.`ox_data_bkt_a` TO 'openex'@'10.57.60.86';
GRANT SELECT, INSERT, UPDATE, DELETE ON `openx`.`ox_data_bkt_a_var` TO 'openex'@'10.57.60.86';
GRANT SELECT, INSERT, UPDATE, DELETE ON `openx`.`ox_data_bkt_c` TO 'openex'@'10.57.60.86';
GRANT SELECT, INSERT, UPDATE, DELETE ON `openx`.`ox_data_bkt_country_c` TO 'openex'@'10.57.60.86';
GRANT SELECT, INSERT, UPDATE, DELETE ON `openx`.`ox_data_bkt_country_m` TO 'openex'@'10.57.60.86';
GRANT SELECT, INSERT, UPDATE, DELETE ON `openx`.`ox_data_bkt_m` TO 'openex'@'10.57.60.86';
GRANT SELECT, INSERT, UPDATE, DELETE ON `openx`.`ox_data_bkt_r` TO 'openex'@'10.57.60.86';
GRANT SELECT, INSERT, UPDATE, DELETE ON `openx`.`ox_data_bkt_tracker_info` TO 'openex'@'10.57.60.86';
GRANT SELECT, INSERT, UPDATE, DELETE ON `openx`.`ox_ext_wecos_data_raw_ip_ci_log_fingerprint` TO 'openex'@'10.57.60.86';
GRANT SELECT, INSERT, UPDATE, DELETE ON `openx`.`ox_ext_wecos_data_raw_ip_ti_log` TO 'openex'@'10.57.60.86';
GRANT SELECT, INSERT, UPDATE, DELETE ON `openx`.`ox_ext_wecos_data_raw_ip_ci_log_server` TO 'openex'@'10.57.60.86';
GRANT SELECT, INSERT, UPDATE, DELETE ON `openx`.`ox_data_bkt_vast_e` TO 'openex'@'10.57.60.86';

## Grants for openex@10.57.60.88 ##
GRANT SUPER, EVENT, TRIGGER ON *.* TO 'openex'@'10.57.60.88' IDENTIFIED BY PASSWORD '6b4e7fe766ae5e32';
GRANT SELECT ON `openx`.* TO 'openex'@'10.57.60.88';
GRANT SELECT, INSERT, UPDATE, DELETE ON `openx`.`lb_local_webserver_status` TO 'openex'@'10.57.60.88';
GRANT SELECT, INSERT, UPDATE, DELETE ON `openx`.`ox_data_bkt_a` TO 'openex'@'10.57.60.88';
GRANT SELECT, INSERT, UPDATE, DELETE ON `openx`.`ox_data_bkt_a_var` TO 'openex'@'10.57.60.88';
GRANT SELECT, INSERT, UPDATE, DELETE ON `openx`.`ox_data_bkt_c` TO 'openex'@'10.57.60.88';
GRANT SELECT, INSERT, UPDATE, DELETE ON `openx`.`ox_data_bkt_country_c` TO 'openex'@'10.57.60.88';
GRANT SELECT, INSERT, UPDATE, DELETE ON `openx`.`ox_data_bkt_country_m` TO 'openex'@'10.57.60.88';
GRANT SELECT, INSERT, UPDATE, DELETE ON `openx`.`ox_data_bkt_m` TO 'openex'@'10.57.60.88';
GRANT SELECT, INSERT, UPDATE, DELETE ON `openx`.`ox_data_bkt_r` TO 'openex'@'10.57.60.88';
GRANT SELECT, INSERT, UPDATE, DELETE ON `openx`.`ox_data_bkt_tracker_info` TO 'openex'@'10.57.60.88';
GRANT SELECT, INSERT, UPDATE, DELETE ON `openx`.`ox_data_bkt_vast_e` TO 'openex'@'10.57.60.88';
GRANT SELECT, INSERT, UPDATE, DELETE ON `openx`.`ox_ext_wecos_data_raw_ip_ci_log_fingerprint` TO 'openex'@'10.57.60.88';
GRANT SELECT, INSERT, UPDATE, DELETE ON `openx`.`ox_ext_wecos_data_raw_ip_ti_log` TO 'openex'@'10.57.60.88';
GRANT SELECT, INSERT, UPDATE, DELETE ON `openx`.`ox_ext_wecos_data_raw_ip_ci_log_server` TO 'openex'@'10.57.60.88';
GRANT SELECT, INSERT, UPDATE, DELETE ON `openx`.`ox_ext_wecos_data_raw_ip_ci_log` TO 'openex'@'10.57.60.88';
GRANT SELECT, INSERT, UPDATE, DELETE ON `openx`.`ox_ext_reward_video` TO 'openex'@'10.57.60.88';

## Grants for openex@10.57.60.90 ##
GRANT SUPER, EVENT, TRIGGER ON *.* TO 'openex'@'10.57.60.90' IDENTIFIED BY PASSWORD '6b4e7fe766ae5e32';
GRANT SELECT ON `openx`.* TO 'openex'@'10.57.60.90';
GRANT SELECT, INSERT, UPDATE, DELETE ON `openx`.`ox_ext_wecos_data_raw_ip_ci_log_fingerprint` TO 'openex'@'10.57.60.90';
GRANT SELECT, INSERT, UPDATE, DELETE ON `openx`.`ox_ext_reward_video` TO 'openex'@'10.57.60.90';
GRANT SELECT, INSERT, UPDATE, DELETE ON `openx`.`ox_ext_wecos_data_raw_ip_ci_log` TO 'openex'@'10.57.60.90';
GRANT SELECT, INSERT, UPDATE, DELETE ON `openx`.`lb_local_webserver_status` TO 'openex'@'10.57.60.90';
GRANT SELECT, INSERT, UPDATE, DELETE ON `openx`.`ox_data_bkt_a` TO 'openex'@'10.57.60.90';
GRANT SELECT, INSERT, UPDATE, DELETE ON `openx`.`ox_data_bkt_a_var` TO 'openex'@'10.57.60.90';
GRANT SELECT, INSERT, UPDATE, DELETE ON `openx`.`ox_data_bkt_c` TO 'openex'@'10.57.60.90';
GRANT SELECT, INSERT, UPDATE, DELETE ON `openx`.`ox_data_bkt_country_c` TO 'openex'@'10.57.60.90';
GRANT SELECT, INSERT, UPDATE, DELETE ON `openx`.`ox_data_bkt_country_m` TO 'openex'@'10.57.60.90';
GRANT SELECT, INSERT, UPDATE, DELETE ON `openx`.`ox_data_bkt_m` TO 'openex'@'10.57.60.90';
GRANT SELECT, INSERT, UPDATE, DELETE ON `openx`.`ox_data_bkt_r` TO 'openex'@'10.57.60.90';
GRANT SELECT, INSERT, UPDATE, DELETE ON `openx`.`ox_data_bkt_tracker_info` TO 'openex'@'10.57.60.90';
GRANT SELECT, INSERT, UPDATE, DELETE ON `openx`.`ox_data_bkt_vast_e` TO 'openex'@'10.57.60.90';
GRANT SELECT, INSERT, UPDATE, DELETE ON `openx`.`ox_ext_wecos_data_raw_ip_ti_log` TO 'openex'@'10.57.60.90';
GRANT SELECT, INSERT, UPDATE, DELETE ON `openx`.`ox_ext_wecos_data_raw_ip_ci_log_server` TO 'openex'@'10.57.60.90';

## Grants for openex@10.57.60.92 ##
GRANT SUPER, EVENT, TRIGGER ON *.* TO 'openex'@'10.57.60.92' IDENTIFIED BY PASSWORD '6b4e7fe766ae5e32';
GRANT SELECT ON `openx`.* TO 'openex'@'10.57.60.92';
GRANT SELECT, INSERT, UPDATE, DELETE ON `openx`.`ox_ext_wecos_data_raw_ip_ci_log_server` TO 'openex'@'10.57.60.92';
GRANT SELECT, INSERT, UPDATE, DELETE ON `openx`.`ox_ext_reward_video` TO 'openex'@'10.57.60.92';
GRANT SELECT, INSERT, UPDATE, DELETE ON `openx`.`ox_data_bkt_tracker_info` TO 'openex'@'10.57.60.92';
GRANT SELECT, INSERT, UPDATE, DELETE ON `openx`.`lb_local_webserver_status` TO 'openex'@'10.57.60.92';
GRANT SELECT, INSERT, UPDATE, DELETE ON `openx`.`ox_data_bkt_a` TO 'openex'@'10.57.60.92';
GRANT SELECT, INSERT, UPDATE, DELETE ON `openx`.`ox_data_bkt_a_var` TO 'openex'@'10.57.60.92';
GRANT SELECT, INSERT, UPDATE, DELETE ON `openx`.`ox_data_bkt_c` TO 'openex'@'10.57.60.92';
GRANT SELECT, INSERT, UPDATE, DELETE ON `openx`.`ox_data_bkt_country_c` TO 'openex'@'10.57.60.92';
GRANT SELECT, INSERT, UPDATE, DELETE ON `openx`.`ox_data_bkt_country_m` TO 'openex'@'10.57.60.92';
GRANT SELECT, INSERT, UPDATE, DELETE ON `openx`.`ox_data_bkt_m` TO 'openex'@'10.57.60.92';
GRANT SELECT, INSERT, UPDATE, DELETE ON `openx`.`ox_data_bkt_r` TO 'openex'@'10.57.60.92';
GRANT SELECT, INSERT, UPDATE, DELETE ON `openx`.`ox_data_bkt_vast_e` TO 'openex'@'10.57.60.92';
GRANT SELECT, INSERT, UPDATE, DELETE ON `openx`.`ox_ext_wecos_data_raw_ip_ci_log_fingerprint` TO 'openex'@'10.57.60.92';
GRANT SELECT, INSERT, UPDATE, DELETE ON `openx`.`ox_ext_wecos_data_raw_ip_ci_log` TO 'openex'@'10.57.60.92';
GRANT SELECT, INSERT, UPDATE, DELETE ON `openx`.`ox_ext_wecos_data_raw_ip_ti_log` TO 'openex'@'10.57.60.92';

## Grants for openex@10.57.60.94 ##
GRANT SUPER, EVENT, TRIGGER ON *.* TO 'openex'@'10.57.60.94' IDENTIFIED BY PASSWORD '6b4e7fe766ae5e32';
GRANT SELECT ON `openx`.* TO 'openex'@'10.57.60.94';
GRANT SELECT, INSERT, UPDATE, DELETE ON `openx`.`ox_ext_reward_video` TO 'openex'@'10.57.60.94';
GRANT SELECT, INSERT, UPDATE, DELETE ON `openx`.`lb_local_webserver_status` TO 'openex'@'10.57.60.94';
GRANT SELECT, INSERT, UPDATE, DELETE ON `openx`.`ox_data_bkt_a_var` TO 'openex'@'10.57.60.94';
GRANT SELECT, INSERT, UPDATE, DELETE ON `openx`.`ox_data_bkt_c` TO 'openex'@'10.57.60.94';
GRANT SELECT, INSERT, UPDATE, DELETE ON `openx`.`ox_data_bkt_country_c` TO 'openex'@'10.57.60.94';
GRANT SELECT, INSERT, UPDATE, DELETE ON `openx`.`ox_data_bkt_country_m` TO 'openex'@'10.57.60.94';
GRANT SELECT, INSERT, UPDATE, DELETE ON `openx`.`ox_data_bkt_m` TO 'openex'@'10.57.60.94';
GRANT SELECT, INSERT, UPDATE, DELETE ON `openx`.`ox_data_bkt_r` TO 'openex'@'10.57.60.94';
GRANT SELECT, INSERT, UPDATE, DELETE ON `openx`.`ox_data_bkt_tracker_info` TO 'openex'@'10.57.60.94';
GRANT SELECT, INSERT, UPDATE, DELETE ON `openx`.`ox_data_bkt_vast_e` TO 'openex'@'10.57.60.94';
GRANT SELECT, INSERT, UPDATE, DELETE ON `openx`.`ox_ext_wecos_data_raw_ip_ci_log_fingerprint` TO 'openex'@'10.57.60.94';
GRANT SELECT, INSERT, UPDATE, DELETE ON `openx`.`ox_ext_wecos_data_raw_ip_ci_log` TO 'openex'@'10.57.60.94';
GRANT SELECT, INSERT, UPDATE, DELETE ON `openx`.`ox_ext_wecos_data_raw_ip_ci_log_server` TO 'openex'@'10.57.60.94';
GRANT SELECT, INSERT, UPDATE, DELETE ON `openx`.`ox_ext_wecos_data_raw_ip_ti_log` TO 'openex'@'10.57.60.94';
GRANT SELECT, INSERT, UPDATE, DELETE ON `openx`.`ox_data_bkt_a` TO 'openex'@'10.57.60.94';

## Grants for openex@10.57.60.96 ##
GRANT SUPER, EVENT, TRIGGER ON *.* TO 'openex'@'10.57.60.96' IDENTIFIED BY PASSWORD '6b4e7fe766ae5e32';
GRANT SELECT ON `openx`.* TO 'openex'@'10.57.60.96';
GRANT SELECT, INSERT, UPDATE, DELETE ON `openx`.`ox_data_bkt_tracker_info` TO 'openex'@'10.57.60.96';
GRANT SELECT, INSERT, UPDATE, DELETE ON `openx`.`ox_ext_reward_video` TO 'openex'@'10.57.60.96';
GRANT SELECT, INSERT, UPDATE, DELETE ON `openx`.`lb_local_webserver_status` TO 'openex'@'10.57.60.96';
GRANT SELECT, INSERT, UPDATE, DELETE ON `openx`.`ox_data_bkt_a` TO 'openex'@'10.57.60.96';
GRANT SELECT, INSERT, UPDATE, DELETE ON `openx`.`ox_data_bkt_a_var` TO 'openex'@'10.57.60.96';
GRANT SELECT, INSERT, UPDATE, DELETE ON `openx`.`ox_data_bkt_c` TO 'openex'@'10.57.60.96';
GRANT SELECT, INSERT, UPDATE, DELETE ON `openx`.`ox_data_bkt_country_c` TO 'openex'@'10.57.60.96';
GRANT SELECT, INSERT, UPDATE, DELETE ON `openx`.`ox_data_bkt_country_m` TO 'openex'@'10.57.60.96';
GRANT SELECT, INSERT, UPDATE, DELETE ON `openx`.`ox_data_bkt_m` TO 'openex'@'10.57.60.96';
GRANT SELECT, INSERT, UPDATE, DELETE ON `openx`.`ox_data_bkt_r` TO 'openex'@'10.57.60.96';
GRANT SELECT, INSERT, UPDATE, DELETE ON `openx`.`ox_data_bkt_vast_e` TO 'openex'@'10.57.60.96';
GRANT SELECT, INSERT, UPDATE, DELETE ON `openx`.`ox_ext_wecos_data_raw_ip_ci_log_fingerprint` TO 'openex'@'10.57.60.96';
GRANT SELECT, INSERT, UPDATE, DELETE ON `openx`.`ox_ext_wecos_data_raw_ip_ci_log` TO 'openex'@'10.57.60.96';
GRANT SELECT, INSERT, UPDATE, DELETE ON `openx`.`ox_ext_wecos_data_raw_ip_ci_log_server` TO 'openex'@'10.57.60.96';
GRANT SELECT, INSERT, UPDATE, DELETE ON `openx`.`ox_ext_wecos_data_raw_ip_ti_log` TO 'openex'@'10.57.60.96';

## Grants for openex@10.57.60.98 ##
GRANT SUPER, EVENT, TRIGGER ON *.* TO 'openex'@'10.57.60.98' IDENTIFIED BY PASSWORD '6b4e7fe766ae5e32';
GRANT SELECT ON `openx`.* TO 'openex'@'10.57.60.98';
GRANT SELECT, INSERT, UPDATE, DELETE ON `openx`.`ox_data_bkt_vast_e` TO 'openex'@'10.57.60.98';
GRANT SELECT, INSERT, UPDATE, DELETE ON `openx`.`ox_data_bkt_c` TO 'openex'@'10.57.60.98';
GRANT SELECT, INSERT, UPDATE, DELETE ON `openx`.`ox_ext_wecos_data_raw_ip_ci_log_fingerprint` TO 'openex'@'10.57.60.98';
GRANT SELECT, INSERT, UPDATE, DELETE ON `openx`.`ox_data_bkt_r` TO 'openex'@'10.57.60.98';
GRANT SELECT, INSERT, UPDATE, DELETE ON `openx`.`ox_data_bkt_country_c` TO 'openex'@'10.57.60.98';
GRANT SELECT, INSERT, UPDATE, DELETE ON `openx`.`ox_ext_wecos_data_raw_ip_ci_log` TO 'openex'@'10.57.60.98';
GRANT SELECT, INSERT, UPDATE, DELETE ON `openx`.`ox_data_bkt_a_var` TO 'openex'@'10.57.60.98';
GRANT SELECT, INSERT, UPDATE, DELETE ON `openx`.`ox_data_bkt_a` TO 'openex'@'10.57.60.98';
GRANT SELECT, INSERT, UPDATE, DELETE ON `openx`.`ox_data_bkt_m` TO 'openex'@'10.57.60.98';
GRANT SELECT, INSERT, UPDATE, DELETE ON `openx`.`ox_data_bkt_tracker_info` TO 'openex'@'10.57.60.98';
GRANT SELECT, INSERT, UPDATE, DELETE ON `openx`.`ox_ext_wecos_data_raw_ip_ti_log` TO 'openex'@'10.57.60.98';
GRANT SELECT, INSERT, UPDATE, DELETE ON `openx`.`ox_ext_wecos_data_raw_ip_ci_log_server` TO 'openex'@'10.57.60.98';
GRANT SELECT, INSERT, UPDATE, DELETE ON `openx`.`ox_ext_reward_video` TO 'openex'@'10.57.60.98';
GRANT SELECT, INSERT, UPDATE, DELETE ON `openx`.`lb_local_webserver_status` TO 'openex'@'10.57.60.98';
GRANT SELECT, INSERT, UPDATE, DELETE ON `openx`.`ox_data_bkt_country_m` TO 'openex'@'10.57.60.98';

## Grants for replicant@108.168.160.70 ##
GRANT REPLICATION SLAVE ON *.* TO 'replicant'@'108.168.160.70' IDENTIFIED BY PASSWORD '5b1ceb2727d52198';

## Grants for backup@127.0.0.1 ##
GRANT ALL PRIVILEGES ON *.* TO 'backup'@'127.0.0.1' IDENTIFIED BY PASSWORD '04822e3d2c4130ed';

## Grants for replicant@127.0.0.1 ##
GRANT REPLICATION SLAVE ON *.* TO 'replicant'@'127.0.0.1' IDENTIFIED BY PASSWORD '45b558a559f96171';

## Grants for reptraffic@127.0.0.1 ##
GRANT REPLICATION SLAVE ON *.* TO 'reptraffic'@'127.0.0.1' IDENTIFIED BY PASSWORD '51cdfb332cad0526';

## Grants for root@127.0.0.1 ##
GRANT ALL PRIVILEGES ON *.* TO 'root'@'127.0.0.1' WITH GRANT OPTION;

## Grants for reptraffic@127.0.1.1 ##
GRANT REPLICATION SLAVE ON *.* TO 'reptraffic'@'127.0.1.1' IDENTIFIED BY PASSWORD '51cdfb332cad0526';

## Grants for reptraffic@127.1.2.3 ##
GRANT REPLICATION SLAVE ON *.* TO 'reptraffic'@'127.1.2.3' IDENTIFIED BY PASSWORD '51cdfb332cad0526';

## Grants for backup@208.43.75.163 ##
GRANT ALL PRIVILEGES ON *.* TO 'backup'@'208.43.75.163' IDENTIFIED BY PASSWORD '04822e3d2c4130ed';

## Grants for replicant@50.22.223.60 ##
GRANT REPLICATION SLAVE ON *.* TO 'replicant'@'50.22.223.60' IDENTIFIED BY PASSWORD '2b95f06e2f9b10c0';

## Grants for openex@50.97.53.250 ##
GRANT SUPER, EVENT, TRIGGER ON *.* TO 'openex'@'50.97.53.250' IDENTIFIED BY PASSWORD '6b4e7fe766ae5e32';
GRANT SELECT, INSERT, UPDATE, DELETE, CREATE, DROP, REFERENCES, INDEX, ALTER, CREATE TEMPORARY TABLES, LOCK TABLES, EXECUTE, CREATE VIEW, SHOW VIEW, CREATE ROUTINE, ALTER ROUTINE ON `openx`.* TO 'openex'@'50.97.53.250';

## Grants for replicant@50.97.53.250 ##
GRANT REPLICATION SLAVE ON *.* TO 'replicant'@'50.97.53.250' IDENTIFIED BY PASSWORD '5b1ceb2727d52198';

## Grants for root@ad4game-master-db ##
GRANT ALL PRIVILEGES ON *.* TO 'root'@'ad4game-master-db' WITH GRANT OPTION;

## Grants for replicant@admin_backup.ad4game.com ##
GRANT USAGE ON *.* TO 'replicant'@'admin_backup.ad4game.com' IDENTIFIED BY PASSWORD '57726e824daba5fd';

## Grants for backup@backup02.mnxsolutions.com ##
GRANT ALL PRIVILEGES ON *.* TO 'backup'@'backup02.mnxsolutions.com' IDENTIFIED BY PASSWORD '04822e3d2c4130ed';

## Grants for backup@localhost ##
GRANT ALL PRIVILEGES ON *.* TO 'backup'@'localhost' IDENTIFIED BY PASSWORD '04822e3d2c4130ed';

## Grants for mnx_check@localhost ##
GRANT USAGE ON *.* TO 'mnx_check'@'localhost' IDENTIFIED BY PASSWORD '4e1d5ad01476ebe1';
GRANT SELECT ON `mnx_check`.* TO 'mnx_check'@'localhost';

## Grants for mnxbackup@localhost ##
GRANT ALL PRIVILEGES ON *.* TO 'mnxbackup'@'localhost' IDENTIFIED BY PASSWORD '2d550c4405f484fe';

## Grants for nagios@localhost ##
GRANT ALL PRIVILEGES ON *.* TO 'nagios'@'localhost' IDENTIFIED BY PASSWORD '072972f820e03f05';

## Grants for openex@localhost ##
GRANT USAGE ON *.* TO 'openex'@'localhost' IDENTIFIED BY PASSWORD '6b4e7fe766ae5e32';
GRANT SELECT, INSERT, UPDATE, DELETE, CREATE, DROP, REFERENCES, INDEX, ALTER, CREATE TEMPORARY TABLES, LOCK TABLES, EXECUTE, CREATE VIEW, SHOW VIEW, CREATE ROUTINE, ALTER ROUTINE ON `openx`.* TO 'openex'@'localhost';

## Grants for openx@localhost ##
GRANT USAGE ON *.* TO 'openx'@'localhost' IDENTIFIED BY PASSWORD '6b4e7fe766ae5e32';
GRANT SELECT, INSERT, UPDATE, DELETE, CREATE, DROP, REFERENCES, INDEX, ALTER, CREATE TEMPORARY TABLES, LOCK TABLES, EXECUTE, CREATE VIEW, SHOW VIEW, CREATE ROUTINE, ALTER ROUTINE ON `openx`.* TO 'openx'@'localhost';
GRANT SELECT, INSERT, UPDATE, DELETE ON `openx`.`ox_ext_offers_cancel` TO 'openx'@'localhost';
GRANT SELECT, INSERT, UPDATE, DELETE ON `openx`.`ox_ext_offers_cancel_message` TO 'openx'@'localhost';
GRANT SELECT, INSERT, UPDATE, DELETE ON `openx`.`ox_ext_cpa_campaigns_alerts` TO 'openx'@'localhost';

## Grants for root@localhost ##
GRANT ALL PRIVILEGES ON *.* TO 'root'@'localhost' WITH GRANT OPTION;

## Grants for openx@mpe.ad4game.com ##
GRANT USAGE ON *.* TO 'openx'@'mpe.ad4game.com' IDENTIFIED BY PASSWORD '6b4e7fe766ae5e32';
GRANT SELECT, INSERT, UPDATE, DELETE, CREATE, DROP, REFERENCES, INDEX, ALTER, CREATE TEMPORARY TABLES, LOCK TABLES, EXECUTE, CREATE VIEW, SHOW VIEW, CREATE ROUTINE, ALTER ROUTINE ON `openx`.* TO 'openx'@'mpe.ad4game.com';

## Grants for openxmpe@mpe.ad4game.com ##
GRANT USAGE ON *.* TO 'openxmpe'@'mpe.ad4game.com' IDENTIFIED BY PASSWORD '6b4e7fe766ae5e32';
GRANT SELECT, INSERT, UPDATE, DELETE, CREATE, DROP, REFERENCES, INDEX, ALTER, CREATE TEMPORARY TABLES, LOCK TABLES, EXECUTE, CREATE VIEW, SHOW VIEW, CREATE ROUTINE, ALTER ROUTINE ON `openx`.* TO 'openxmpe'@'mpe.ad4game.com';
